{
    "name": "bMyGuest API",
    "url": "API_URL",
    "uploadsDir": "uploads/",
    "port": 3001,
    "mysql": {
        "host": "MYSQL_HOST",
        "port": "MYSQL_PORT",
        "database": "MYSQL_DATABASE",
        "user": "MYSQL_USER",
        "password": "MYSQL_PASSWORD",
        "rootUser": "MYSQL_ROOT_USER",
        "rootPassword": "MYSQL_ROOT_PASSWORD"
    },
    "passport": {
        "facebook": {
            "clientID": "FACEBOOK_CLIENT_ID",
            "clientSecret": "FACEBOOK_CLIENT_SECRET",
            "callbackURL": "FACEBOOK_CALLBACK_URL"
        }
    }
}
